# Blender 4.0.2 MTL File: 'None'
# www.blender.org

newmtl Material.001
Ks 0.500000 0.500000 0.500000
Ke 0.000000 0.000000 0.000000
Ni 1.450000
d 1.000000
illum 2
Pr 0.500000
Pm 0.000000
Ps 0.000000
Pc 0.000000
Pcr 0.030000
aniso 0.000000
anisor 0.000000
